<?xml version="1.0" encoding="UTF-8" standalone="no"?>
<svg
   xmlns:svg="http://www.w3.org/2000/svg"
   xmlns="http://www.w3.org/2000/svg"
   xmlns:xlink="http://www.w3.org/1999/xlink"
   xmlns:sodipodi="http://sodipodi.sourceforge.net/DTD/sodipodi-0.dtd"
   xmlns:inkscape="http://www.inkscape.org/namespaces/inkscape"
   sodipodi:docname="hellotexture.svg"
   inkscape:version="1.1-dev (586dfb0c16, 2020-05-07)"
   inkscape:export-ydpi="96"
   inkscape:export-xdpi="96"
   inkscape:export-filename="/home/aatu/git/oglinc/texture2.png"
   id="svg6"
   version="1.1"
   viewBox="0 0 169.33338 127"
   height="480"
   width="640">
  <defs
     id="defs2">
    <linearGradient
       inkscape:collect="always"
       id="BG2">
      <stop
         style="stop-color:#02021c;stop-opacity:1;"
         offset="0"
         id="stop912" />
      <stop
         style="stop-color:#339fff;stop-opacity:1"
         offset="1"
         id="stop914" />
    </linearGradient>
    <linearGradient
       id="linearGradient899-3"
       inkscape:collect="always">
      <stop
         id="stop895"
         offset="0"
         style="stop-color:#02021c;stop-opacity:1;" />
      <stop
         id="stop897"
         offset="1"
         style="stop-color:#000031;stop-opacity:1" />
    </linearGradient>
    <linearGradient
       id="linearGradient873"
       inkscape:collect="always">
      <stop
         id="stop869"
         offset="0"
         style="stop-color:#fcc400;stop-opacity:1;" />
      <stop
         id="stop871"
         offset="1"
         style="stop-color:#fcc400;stop-opacity:0;" />
    </linearGradient>
    <radialGradient
       gradientTransform="matrix(1.906142,0,0,1.906142,-126.91928,-61.600507)"
       gradientUnits="userSpaceOnUse"
       r="7.5777874"
       fy="67.981071"
       fx="140.06555"
       cy="67.981071"
       cx="140.06555"
       id="radialGradient875"
       xlink:href="#linearGradient873"
       inkscape:collect="always" />
    <linearGradient
       gradientUnits="userSpaceOnUse"
       y2="127"
       x2="169.33333"
       y1="8.4666662"
       x1="25.4"
       id="linearGradient901"
       xlink:href="#linearGradient899-3"
       inkscape:collect="always" />
    <linearGradient
       y2="127"
       x2="169.33333"
       y1="8.4666662"
       x1="25.4"
       gradientUnits="userSpaceOnUse"
       id="linearGradient910"
       xlink:href="#BG2"
       inkscape:collect="always" />
  </defs>
  <sodipodi:namedview
     inkscape:window-maximized="1"
     inkscape:window-y="31"
     inkscape:window-x="6"
     inkscape:window-height="1041"
     inkscape:window-width="1906"
     width="640px"
     units="px"
     showgrid="true"
     inkscape:current-layer="layer1"
     inkscape:document-units="mm"
     inkscape:cy="270.68226"
     inkscape:cx="425.06521"
     inkscape:zoom="1.1372843"
     inkscape:pageshadow="2"
     inkscape:pageopacity="0.0"
     borderopacity="1.0"
     bordercolor="#666666"
     pagecolor="#ffffff"
     id="base">
    <inkscape:grid
       empspacing="32"
       id="grid823"
       type="xygrid" />
  </sodipodi:namedview>
  <g
     id="layer1"
     inkscape:groupmode="layer"
     inkscape:label="Layer 1">
    <rect
       inkscape:label="BG1"
       y="0"
       x="0"
       height="127"
       width="169.33333"
       id="rect825"
       style="display:none;fill:url(#linearGradient901);fill-opacity:1;stroke:none;stroke-width:2;stroke-linecap:round;stroke-linejoin:round" />
    <rect
       style="display:inline;fill:url(#linearGradient910);fill-opacity:1;stroke:none;stroke-width:2;stroke-linecap:round;stroke-linejoin:round;stroke-miterlimit:4;stroke-dasharray:none"
       id="rect903"
       width="169.33333"
       height="127"
       x="0"
       y="0"
       inkscape:label="BG2" />
    <circle
       inkscape:label="C2"
       style="display:inline;fill:#fcc400;fill-opacity:1;stroke:none;stroke-width:2;stroke-linecap:round;stroke-linejoin:round"
       id="circle867"
       cx="140.06555"
       cy="67.981071"
       r="4.2333331" />
    <text
       inkscape:label="Hello text"
       id="text829"
       y="73.676941"
       x="71.636635"
       style="font-style:normal;font-variant:normal;font-weight:bold;font-stretch:normal;font-size:25.4px;line-height:1.25;font-family:freemono;-inkscape-font-specification:'freemono Bold';letter-spacing:0px;word-spacing:0px;display:inline;fill:#ffffff;fill-opacity:1;stroke:none;stroke-width:0.264583"
       xml:space="preserve"><tspan
         y="73.676941"
         x="71.636635"
         style="font-style:normal;font-variant:normal;font-weight:bold;font-stretch:normal;font-size:25.4px;font-family:freemono;-inkscape-font-specification:'freemono Bold';fill:#ffffff;fill-opacity:1;stroke-width:0.264583"
         id="tspan827"
         sodipodi:role="line">Hello</tspan><tspan
         id="tspan831"
         y="105.42694"
         x="71.636635"
         style="font-style:normal;font-variant:normal;font-weight:bold;font-stretch:normal;font-size:25.4px;font-family:freemono;-inkscape-font-specification:'freemono Bold';fill:#ffffff;fill-opacity:1;stroke-width:0.264583"
         sodipodi:role="line">World</tspan></text>
    <circle
       inkscape:label="C1"
       r="14.444339"
       cy="67.981071"
       cx="140.06555"
       id="path865"
       style="display:inline;fill:url(#radialGradient875);fill-opacity:1;stroke:none;stroke-width:6.8241;stroke-linecap:round;stroke-linejoin:round" />
    <g
       inkscape:label="stars"
       style="display:none"
       id="g893">
      <circle
         style="fill:#ffffff;fill-opacity:0.3983;stroke:none;stroke-width:2;stroke-linecap:round;stroke-linejoin:round"
         id="path833"
         cx="21.166666"
         cy="21.166666"
         r="4.2333331" />
      <circle
         style="fill:#ffffff;fill-opacity:0.3983;stroke:none;stroke-width:2;stroke-linecap:round;stroke-linejoin:round"
         id="path835"
         cx="38.099998"
         cy="29.633333"
         r="4.2333331" />
      <circle
         style="fill:#ffffff;fill-opacity:0.3983;stroke:none;stroke-width:2;stroke-linecap:round;stroke-linejoin:round"
         id="path837"
         cx="27.84277"
         cy="27.535515"
         r="8.4666662" />
      <circle
         style="fill:#ffffff;fill-opacity:0.3983;stroke:none;stroke-width:2;stroke-linecap:round;stroke-linejoin:round"
         id="path839"
         cx="33.952366"
         cy="25.136814"
         r="4.2333331" />
      <circle
         r="4.2333331"
         cy="19.862249"
         cx="62.760353"
         id="circle841"
         style="fill:#ffffff;fill-opacity:0.3983;stroke:none;stroke-width:2;stroke-linecap:round;stroke-linejoin:round" />
      <circle
         style="fill:#ffffff;fill-opacity:0.3983;stroke:none;stroke-width:2;stroke-linecap:round;stroke-linejoin:round"
         id="circle843"
         cx="80.325035"
         cy="35.333134"
         r="4.2333331" />
      <circle
         r="4.2333331"
         cy="19.745928"
         cx="97.889725"
         id="circle845"
         style="fill:#ffffff;fill-opacity:0.3983;stroke:none;stroke-width:2;stroke-linecap:round;stroke-linejoin:round" />
      <circle
         style="fill:#ffffff;fill-opacity:0.3983;stroke:none;stroke-width:2;stroke-linecap:round;stroke-linejoin:round"
         id="circle847"
         cx="100.09985"
         cy="27.888498"
         r="4.2333331" />
      <circle
         r="4.2333331"
         cy="18.001093"
         cx="126.15607"
         id="circle849"
         style="fill:#ffffff;fill-opacity:0.3983;stroke:none;stroke-width:2;stroke-linecap:round;stroke-linejoin:round" />
      <circle
         style="fill:#ffffff;fill-opacity:0.3983;stroke:none;stroke-width:2;stroke-linecap:round;stroke-linejoin:round"
         id="circle851"
         cx="47.275787"
         cy="55.319527"
         r="4.2333331" />
      <circle
         r="4.2333331"
         cy="42.524059"
         cx="13.076994"
         id="circle853"
         style="fill:#ffffff;fill-opacity:0.3983;stroke:none;stroke-width:2;stroke-linecap:round;stroke-linejoin:round" />
      <circle
         r="8.4666662"
         cy="66.61985"
         cx="45.640102"
         id="circle855"
         style="fill:#ffffff;fill-opacity:0.3983;stroke:none;stroke-width:2;stroke-linecap:round;stroke-linejoin:round" />
      <circle
         style="fill:#ffffff;fill-opacity:0.3983;stroke:none;stroke-width:2;stroke-linecap:round;stroke-linejoin:round"
         id="circle857"
         cx="24.585743"
         cy="91.047562"
         r="8.4666662" />
      <circle
         r="8.4666662"
         cy="14.042115"
         cx="64.949623"
         id="circle859"
         style="fill:#ffffff;fill-opacity:0.3983;stroke:none;stroke-width:2;stroke-linecap:round;stroke-linejoin:round" />
      <circle
         style="fill:#ffffff;fill-opacity:0.3983;stroke:none;stroke-width:2;stroke-linecap:round;stroke-linejoin:round"
         id="circle861"
         cx="96.705643"
         cy="29.512999"
         r="8.4666662" />
      <circle
         r="8.4666662"
         cy="16.833855"
         cx="132.41663"
         id="circle863"
         style="fill:#ffffff;fill-opacity:0.3983;stroke:none;stroke-width:2;stroke-linecap:round;stroke-linejoin:round" />
    </g>
  </g>
</svg>
